[18:08:42] PROCESS STARTED, STAGE CLEANUP
[18:08:43] ### NEXT STAGE >>> CREATE_DICTIONARY in 423999:08:43, mem peak = 0 mb
HIT ENDED [18:08:43]
#############################
HIT STARTED [18:08:43]
[18:08:48] ### NEXT STAGE >>> RESORT_DICTIONARY in 0:00:05, mem peak = 4.1309967041016 mb
HIT ENDED [18:08:48]
#############################
HIT STARTED [18:08:49]
[18:08:49] ### NEXT STAGE >>> CREATE_SEARCH_INDEX in 0:00:06, mem peak = 5.3110275268555 mb
HIT ENDED [18:08:49]
#############################
HIT STARTED [18:08:50]
[18:08:55] ### NEXT STAGE >>> CREATE_SITE2LOCATION_INDEX in 0:00:12, mem peak = 5.3110275268555 mb
HIT ENDED [18:08:55]
#############################
HIT STARTED [18:08:55]
[18:08:55] ### NEXT STAGE >>> RESTORE_DB_INDEXES in 0:00:12, mem peak = 5.3110275268555 mb
HIT ENDED [18:08:55]
#############################
HIT STARTED [18:08:56]
HIT ENDED [18:08:56]
#############################
HIT STARTED [18:08:56]
HIT ENDED [18:08:57]
#############################
HIT STARTED [18:08:57]
[18:08:58] ### NEXT STAGE >>>  in 0:00:15, mem peak = 5.3110275268555 mb
HIT ENDED [18:08:58]
